<?xml version="1.0" standalone="no"?>
<!DOCTYPE svg PUBLIC "-//W3C//DTD SVG 1.1//EN" "http://www.w3.org/Graphics/SVG/1.1/DTD/svg11.dtd" >
<svg xmlns="http://www.w3.org/2000/svg">
<metadata>Generated by IcoMoon</metadata>
<defs>
<font id="icomoon" horiz-adv-x="1024">
<font-face units-per-em="1024" ascent="960" descent="-64" />
<missing-glyph horiz-adv-x="1024" />
<glyph unicode="&#x20;" horiz-adv-x="512" d="" />
<glyph unicode="&#xe900;" glyph-name="facebook" d="M512 952.32c-271.462 0-491.52-220.058-491.52-491.52s220.058-491.52 491.52-491.52 491.52 220.058 491.52 491.52-220.058 491.52-491.52 491.52zM628.429 612.659h-73.882c-8.755 0-18.483-11.52-18.483-26.829v-53.35h92.416l-13.978-76.083h-78.438v-228.403h-87.194v228.403h-79.104v76.083h79.104v44.749c0 64.205 44.544 116.378 105.677 116.378h73.882v-80.947z" />
<glyph unicode="&#xe901;" glyph-name="twitter" d="M512 952.32c-271.462 0-491.52-220.058-491.52-491.52s220.058-491.52 491.52-491.52 491.52 220.058 491.52 491.52-220.058 491.52-491.52 491.52zM711.936 549.683c0.205-4.198 0.256-8.397 0.256-12.493 0-128-97.331-275.507-275.405-275.507-54.682 0-105.574 15.974-148.378 43.52 7.526-0.922 15.258-1.28 23.091-1.28 45.363 0 87.091 15.411 120.218 41.421-42.342 0.819-78.080 28.774-90.419 67.174 5.888-1.075 11.93-1.69 18.176-1.69 8.806 0 17.408 1.178 25.498 3.379-44.288 8.909-77.67 48.026-77.67 94.925v1.178c13.056-7.219 28.006-11.622 43.878-12.134-26.010 17.408-43.059 47.002-43.059 80.64 0 17.715 4.762 34.406 13.107 48.691 47.77-58.573 119.040-97.075 199.526-101.222-1.69 7.117-2.509 14.49-2.509 22.118 0 53.402 43.315 96.819 96.819 96.819 27.802 0 52.992-11.776 70.656-30.618 22.067 4.403 42.752 12.39 61.44 23.501-7.219-22.579-22.528-41.574-42.547-53.606 19.61 2.406 38.246 7.578 55.603 15.309-12.954-19.405-29.389-36.506-48.282-50.125z" />
<glyph unicode="&#xe902;" glyph-name="chevron-down" horiz-adv-x="2048" d="M1499.928 833.384l-481.285-476.432-481.446 476.432h-283.967l765.413-757.441 765.251 757.441z" />
<glyph unicode="&#xe903;" glyph-name="menu" horiz-adv-x="1063" d="M83.040 880h897.23v-128.681h-897.23v128.681zM83.040 512.34h897.23v-128.681h-897.23v128.681zM83.040 144.681h897.23v-128.681h-897.23v128.681z" />
<glyph unicode="&#xe904;" glyph-name="prc-mark" horiz-adv-x="1411" d="M1190.424 402.854c111.77 39.271 161.477 117.256 161.477 117.256-91.269-40.25-163.302-12.438-163.302-12.438 222.417 170.433 124.478 358.197 124.478 358.197-14.884-44.303-78.070-130.183-199.178-189.3v0c-83.165 147.941-240.181 239.579-410.502 239.579s-327.337-91.638-410.502-239.579c-148.208 83.714-159.721 132.489-195.808 186.785 0 0-97.097-187.204 130.796-364.485 0 0-85.512-13.975-172.921 52.549 0 0 59.817-121.868 174.254-153.173-23.204-17.605-53.030-24.125-81.511-17.819 32.639-21.387 66.884-40.24 102.433-56.392 56.851-203.683 243.783-344.181 456.171-342.857s397.537 144.141 451.821 348.517c0.421 1.607 0.702 3.145 1.124 4.752 27.519 8.678 53.267 22.166 76.035 39.831-63.117 13.975-44.862 28.58-44.862 28.58v0zM309.743 300.412c33.221-11.729 67.995-18.534 103.205-20.195 61.554-0.216 122.887 7.321 182.539 22.431 113.315 27.951 185.698-25.296 196.58-82.247 4.212-22.571-10.461-40.32-26.398-52.549-91.901-50.731-210.622-54.435-315.933 1.048-57.722 30.475-106.094 75.915-139.993 131.511v0zM598.997 62.826c-24.005 6.296-47.479 14.45-70.208 24.387 106.855-18.448 269.386 31.934 295.292 104.817 14.376 31.204 10.782 67.692-9.408 95.524-65.574 97.27-197.985 229.48-432.407 343.033-21.765 10.551-41.563 20.614-59.676 30.187 92.884 148.981 286.937 225.288 480.148 174.696 29.295-7.642 57.788-18.055 85.091-31.096-110.915 23.414-226.219-10.34-306.736-89.794 152.533 95.926 352.594 66.559 470.81-69.11-89.795-46.679-155.018-86.859-176.993-100.974-26.749-17.26-114.508-86.3-126.373-81.968-9.689 3.564-17.692 17.749-17.131 38.643 0.632 23.619 31.032 89.724 97.167 108.102s43.248-10.831 43.248-10.831c114.297 75.189-26.468 81.338-26.468 81.338-202.899 12.858-299.645-19.496-299.645-19.496 32.998 2.865 95.201-5.87 95.201-5.87-44.894-18.368-84.747-47.112-116.263-83.854 23.555 11.181 49.307 17.027 75.402 17.12-19.728-35.847-45.214-39.342-45.214-39.342 148.559-86.23 315.933-257.642 299.786-311.029-1.474-4.822 23.519 65.686 77.228 83.085 29.076 9.449 60.064 11.514 90.146 6.010 31.806-6.549 64.55-7.236 96.605-2.026-62.484-204.534-291.712-321.37-519.604-261.904v0.349zM733.725 676.917c23.211-0.036 46.12-5.241 67.048-15.234 0 0-38.825-11.67-67.048 15.234v0z" />
<glyph unicode="&#xe905;" glyph-name="close" horiz-adv-x="1065" d="M989.87 791.391l-95.306 99.238-362.163-347.43-361.963 347.43-95.306-99.238 358.031-343.301-358.031-343.501 95.306-99.238 361.963 347.233 362.163-347.233 95.306 99.238-358.031 343.501z" />
<glyph unicode="&#xe906;" glyph-name="prc-logo" horiz-adv-x="4333" d="M1338.444 423.624v311.226h281.076c18.602 0 34.643-1.932 48.123-5.774s23.747-8.986 32.082-16.041c7.706-7.055 14.109-16.041 17.322-26.308 3.842-10.267 5.774-22.466 5.774-36.575v-40.417c0-13.48-1.932-25.679-5.774-36.575-3.842-10.267-9.616-19.254-17.322-26.308s-18.602-12.828-32.082-16.041c-13.48-3.842-29.521-5.774-48.123-5.774h-220.103v-101.391h-60.951zM1399.415 582.124h220.103c13.48 0 23.747 1.932 30.15 6.425s9.616 10.918 9.616 19.883v39.788c0 8.986-3.213 15.412-9.616 19.883s-16.041 6.425-30.15 6.425h-220.103v-92.404zM1760.047 423.624v311.226h60.951v-100.11h261.823v100.11h60.951v-311.226h-60.951v154.658h-261.823v-154.658h-60.951zM2301.014 423.624c-19.254 0-35.295 1.932-48.123 5.774s-23.747 8.986-31.453 16.041c-7.706 7.055-14.109 16.041-17.322 26.308s-5.774 22.466-5.774 36.575v141.83c0 13.48 1.932 25.679 5.774 36.575s9.616 19.254 17.322 26.308c7.706 7.055 18.602 12.828 31.453 16.041 12.828 3.842 28.869 5.774 48.123 5.774h178.405c18.602 0 34.643-1.932 48.123-5.774s23.747-8.986 32.082-16.041c7.706-7.055 14.109-16.041 17.322-26.308s5.774-22.466 5.774-36.575v-141.83c0-13.48-1.932-25.679-5.774-36.575s-9.616-19.254-17.322-26.308-18.602-12.828-32.082-16.041c-13.48-3.842-29.521-5.774-48.123-5.774h-178.405zM2261.227 510.886c0-8.986 3.213-15.412 9.616-19.883s16.041-6.425 30.15-6.425h179.034c13.48 0 23.747 1.932 30.15 6.425s9.616 10.918 9.616 19.883v136.685c0 8.986-3.213 15.412-9.616 19.883s-16.041 6.425-30.15 6.425h-179.686c-13.48 0-23.747-1.932-30.15-6.425s-9.616-10.918-9.616-19.883v-136.685zM2635.988 423.624v311.226h383.096v-60.951h-321.493v-41.068h263.103v-57.11h-263.103v-91.123h322.774v-60.951h-384.377zM3065.946 423.624v284.289c0 9.616 2.561 17.322 8.335 23.096s12.199 8.335 19.883 8.335c3.213 0 7.055-0.651 10.267-1.932 3.842-1.281 7.055-3.213 10.267-5.774l273.37-220.754v223.967h60.951v-284.918c0-9.616-2.561-17.322-8.335-23.096s-12.199-8.335-19.883-8.335c-3.213 0-7.055 0.651-10.267 1.932-3.842 1.281-7.055 3.213-10.267 5.774l-273.37 220.754v-223.315h-60.951zM3508.715 423.624v311.226h60.951v-311.226h-60.951zM3610.757 423.624l207.926 155.939-207.926 155.288h99.459l154.007-118.083 154.658 118.083h99.459l-205.994-154.007 210.487-157.219h-98.829l-157.219 119.364-156.568-119.364h-99.459zM1197.266 165.643v165.555h126.418c8.335 0 15.412-0.651 21.815-2.561 5.774-1.932 10.918-3.842 14.109-7.055 3.842-3.213 6.425-7.055 7.706-12.199 1.932-4.493 2.561-10.267 2.561-16.692v-14.109c0-6.425-0.651-11.548-2.561-16.692-1.932-4.493-4.493-8.986-7.706-12.199-3.842-3.213-8.335-5.774-14.109-7.055-5.774-1.932-13.48-2.561-21.815-2.561h-21.186l71.87-75.734h-49.404l-66.747 75.734h-34.014v-75.734h-26.959zM1224.223 265.753h99.459c6.425 0 10.918 1.281 13.48 3.213s4.493 5.145 4.493 8.986v14.109c0 3.842-1.281 7.055-4.493 8.986-2.561 1.932-7.055 3.213-13.48 3.213h-99.459v-38.507zM1444.977 165.643v140.527h172.631v-27.589h-145.020v-18.602h118.712v-25.679h-118.712v-41.068h145.672v-27.589h-173.26zM1741.445 165.643c-8.335 0-16.041 0.651-21.815 2.561s-10.918 3.842-14.109 7.055c-3.842 3.213-6.425 7.055-7.706 12.199-1.932 4.493-2.561 10.267-2.561 16.692v89.192c0 6.425 0.651 11.548 2.561 16.692 1.932 4.493 4.493 8.986 7.706 12.199 3.842 3.213 8.335 5.774 14.109 7.055 5.774 1.932 12.828 2.561 21.815 2.561h126.418v-27.589h-126.418c-6.425 0-10.918-1.281-13.48-3.213s-4.493-5.145-4.493-8.986v-87.282c0-3.842 1.281-7.055 4.493-8.986 2.561-1.932 7.055-3.213 13.48-3.213h99.459v41.068h-93.685v25.679h107.164c3.842 0 7.055-1.281 9.616-3.842s3.842-5.774 3.842-9.616v-80.205h-126.418zM1948.068 165.643v140.527h172.631v-27.589h-145.020v-18.602h118.712v-25.679h-118.712v-41.068h145.020v-27.589h-172.631zM2198.992 165.643v128.35c0 4.493 1.281 7.706 3.842 10.267s5.774 3.842 8.986 3.842c1.281 0 3.213 0 4.493-0.651 1.932-0.651 3.213-1.281 4.493-2.561l123.205-99.459v100.739h27.589v-128.35c0-4.493-1.281-7.706-3.842-10.267s-5.774-3.842-8.986-3.842c-1.281 0-3.213 0-4.493 0.651-1.932 0.651-3.213 1.281-4.493 2.561l-123.205 99.459v-100.739h-27.589zM2625.72 165.643c-8.335 0-16.041 0.651-21.815 2.561s-10.918 3.842-14.109 7.055c-3.842 3.213-6.425 7.055-7.706 12.199-1.932 4.493-2.561 10.267-2.561 16.692v89.192c0 6.425 0.651 11.548 2.561 16.692 1.932 4.493 4.493 8.986 7.706 12.199 3.842 3.213 8.335 5.774 14.109 7.055 5.774 1.932 12.828 2.561 21.815 2.561h126.418v-27.589h-126.418c-6.425 0-10.918-1.281-13.48-3.213s-4.493-5.145-4.493-8.986v-87.282c0-3.842 1.281-7.055 4.493-8.986 2.561-1.932 7.055-3.213 13.48-3.213h127.047v-27.589h-127.047zM2829.782 165.643v140.527h172.631v-27.589h-145.020v-18.602h118.712v-25.679h-118.712v-41.068h145.672v-27.589h-173.26zM3080.707 165.643v128.35c0 4.493 1.281 7.706 3.842 10.267s5.774 3.842 8.986 3.842c1.281 0 3.213 0 4.493-0.651 1.932-0.651 3.213-1.281 4.493-2.561l123.205-99.459v100.739h27.589v-128.35c0-4.493-1.281-7.706-3.842-10.267s-5.774-3.842-8.986-3.842c-1.281 0-3.213 0-4.493 0.651-1.932 0.651-3.213 1.281-4.493 2.561l-123.205 99.459v-100.739h-27.589zM3397.709 165.643v112.938h-72.521v27.589h172.631v-27.589h-72.521v-112.938h-27.589zM3569.689 165.643v140.527h172.631v-27.589h-145.020v-18.602h118.712v-25.679h-118.712v-41.068h145.672v-27.589h-173.26zM3820.593 165.643v140.527h126.418c8.335 0 15.412-0.651 21.815-2.561 5.774-1.932 10.918-3.842 14.109-7.055 3.842-3.213 6.425-7.055 7.706-12.199 1.932-4.493 2.561-10.267 2.561-16.692v-14.109c0-6.425-0.651-11.548-2.561-16.692s-4.493-8.986-7.706-12.199c-3.842-3.213-8.335-5.774-14.109-7.055-5.774-1.932-13.48-2.561-21.815-2.561h-21.186l71.87-50.055h-49.404l-66.747 50.055h-34.014v-50.055h-26.959zM3847.55 240.097h99.459c6.425 0 10.918 1.281 13.48 3.213s4.493 5.145 4.493 8.986v14.109c0 3.842-1.281 7.055-4.493 8.986-2.561 1.932-7.055 3.213-13.48 3.213h-99.459v-38.507zM4067.655 165.643v27.589h121.296c6.425 0 10.918 1.281 13.48 3.213s4.493 5.145 4.493 8.986v14.109c0 3.842-1.281 7.055-4.493 8.986-2.561 1.932-7.055 3.213-13.48 3.213h-80.856c-26.959 0-40.417 10.267-40.417 30.15v17.973c0 17.973 13.48 26.959 40.417 26.959h121.925v-27.589h-122.576c-4.493 0-7.055-0.651-8.335-1.281s-2.561-1.932-2.561-3.842v-8.335c0-2.561 0.651-3.842 2.561-5.145 1.281-0.651 4.493-1.281 8.986-1.281h81.508c8.335 0 15.412-0.651 21.815-2.561 5.774-1.932 10.918-3.842 14.109-7.055 3.842-3.213 6.425-7.055 7.706-12.199 1.932-4.493 2.561-10.267 2.561-16.692v-16.692c0-6.425-0.651-11.548-2.561-16.692-1.932-4.493-4.493-8.986-7.706-12.199-3.842-3.213-8.335-5.774-14.109-7.055-5.774-1.932-13.48-2.561-21.815-2.561h-121.925zM1160.69 381.904h3110.397v-12.828h-3110.397v12.828zM531.161 32.171c229.741-60.322 464.604 77.014 524.926 306.733s-77.014 464.604-306.733 524.926c-229.741 60.322-464.604-77.014-524.926-306.733s77.014-464.604 306.733-524.926zM730.75 803.508c27.589-7.055 53.268-16.692 77.644-28.24-100.11 21.186-206.623-8.986-280.425-82.137 107.164 68.028 248.994 71.241 361.933-3.213 72.521-48.123 120.644-119.364 139.898-197.659 8.335-46.842 6.425-96.246-6.425-144.391-51.336-195.727-265.665-309.294-478.713-253.488-22.466 5.774-43.63 13.48-64.164 22.466 107.164-18.602 275.302 39.137 273.37 116.151-86.63-83.418-225.877-103.952-345.24-41.068-69.938 37.227-121.296 95.617-150.165 162.993-20.534 62.254-23.747 128.979-6.425 195.075 51.336 195.727 265.665 309.294 478.713 253.488zM725.607 182.967c0 0 4.493 0 9.616 5.774 10.267 10.267 43 57.761 7.055 111.658-59.671 89.192-180.966 210.487-395.295 315.090-214.329 103.952-222.035 155.939-260.542 214.329 0 0-88.562-171.98 119.364-334.973 0 0-78.295-12.828-157.871 48.123 0 0 54.548-111.658 159.151-140.527 0 0-32.082-26.959-74.431-16.041 0 0 130.26-89.192 242.569-91.775 0 0 72.521-2.561 166.835 20.534 103.323 25.679 170.048-23.096 179.686-75.734 7.706-42.349-55.2-66.096-55.2-66.096l59.041 9.616zM1085.608 406.282c102.042 35.946 147.604 107.816 147.604 107.816-83.418-37.227-149.514-11.548-149.514-11.548 203.433 156.568 113.59 329.199 113.59 329.199-13.48-40.417-71.241-119.364-182.247-173.912s-194.446-105.884-218.822-121.296c-24.376-16.041-104.603-79.576-115.5-75.082-8.986 3.213-16.041 16.041-15.412 35.295 0.651 21.815 28.24 82.137 88.562 99.459 60.322 16.692 39.788-9.616 39.788-9.616 104.603 69.309-23.747 75.082-23.747 75.082-185.46 11.548-274.022-17.973-274.022-17.973 30.15 2.561 87.282-5.145 87.282-5.145-67.377-26.959-106.513-77.014-106.513-77.014 37.227 17.322 68.657 15.412 68.657 15.412-17.973-32.733-41.068-35.946-41.068-35.946 136.034-78.924 288.76-236.795 274.022-285.57-1.281-4.493 21.815 60.322 70.589 76.363 44.91 14.109 82.137 5.774 82.137 5.774 116.151-23.747 194.446 43.63 194.446 43.63-56.48 11.548-39.788 25.027-39.788 25.027zM728.82 643.727c0 0-35.295-10.918-60.951 14.109 0 0 32.733 0.651 60.951-14.109z" />
<glyph unicode="&#xe907;" glyph-name="chevron-with-circle-left" d="M578.662 625.869c-10.035 10.086-26.368 10.086-36.352 0l-143.718-146.688c-10.035-10.189-10.035-26.624 0-36.71l143.718-146.637c9.984-10.189 26.317-10.138 36.352 0 10.035 10.086 10.035 26.522 0 36.71l-117.862 128.256 117.862 128.307c10.035 10.138 10.035 26.522 0 36.762zM512 952.32c-271.462 0-491.52-220.058-491.52-491.52 0-271.514 220.058-491.52 491.52-491.52s491.52 220.006 491.52 491.52c0 271.462-220.058 491.52-491.52 491.52zM512 33.075c-236.288 0-427.725 191.488-427.725 427.725s191.437 427.725 427.725 427.725c236.186 0 427.725-191.488 427.725-427.725s-191.539-427.725-427.725-427.725z" />
<glyph unicode="&#xe908;" glyph-name="chevron-right" horiz-adv-x="576" d="M59.712 738.155l287.192-290.107-287.192-290.211v-171.169l456.576 461.375-456.576 461.289z" />
<glyph unicode="&#xe909;" glyph-name="chevron-left" horiz-adv-x="576" d="M516.288 157.845l-287.192 290.107 287.192 290.211v171.169l-456.576-461.375 456.576-461.289z" />
</font></defs></svg>